<svg xmlns="http://www.w3.org/2000/svg" viewBox="0 0 815 700" width="815" height="700">
	<style>
		tspan { white-space:pre }
		.shp0 { fill: #f2f2f2 } 
		.shp1 { fill: #e6e6e6 } 
		.shp2 { fill: #3f3d56 } 
		.shp3 { fill: #7386d5 } 
		.shp4 { opacity: 0.102;fill: #000000 } 
		.shp5 { fill: #ffffff } 
		.shp6 { fill: #2f2e41 } 
		.shp7 { fill: #ffb9b9 } 
	</style>
	<path id="Layer" class="shp0" d="M658.07 700C571.28 700 501.14 685.5 501.14 667.56C501.14 649.63 571.28 635.13 658.07 635.13C744.85 635.13 815 649.63 815 667.56C815 685.5 744.85 700 658.07 700Z" />
	<path id="Layer" class="shp1" d="M47.99 408.1C48.93 410.28 49.92 412.48 50.93 414.65L48.76 415.67C47.73 413.48 46.73 411.25 45.78 409.05L47.99 408.1Z" />
	<path id="Layer" class="shp1" d="M436.38 233.73C437.75 236.65 439.07 239.64 440.3 242.59L438.08 243.52C436.24 239.09 434.2 234.63 432.05 230.31L434.21 229.24C434.95 230.72 435.67 232.22 436.38 233.73ZM427.23 216.33L425.16 217.55C422.72 213.38 420.11 209.26 417.41 205.28L419.39 203.93C422.13 207.95 424.77 212.12 427.23 216.33ZM445.47 256.32C447.03 260.95 448.46 265.67 449.69 270.37L447.37 270.99C446.14 266.34 444.74 261.67 443.19 257.09L445.47 256.32ZM410.72 192.1L408.83 193.58C405.85 189.8 402.7 186.07 399.47 182.5L401.26 180.88C404.53 184.5 407.71 188.27 410.72 192.1ZM452.94 284.68C453.85 289.47 454.61 294.35 455.19 299.19L452.8 299.47C452.23 294.69 451.48 289.86 450.58 285.13L452.94 284.68ZM391.04 170.35L389.37 172.09C385.9 168.75 382.27 165.49 378.58 162.41L380.13 160.56C383.86 163.68 387.53 166.98 391.04 170.35ZM456.44 313.83C456.69 318.71 456.76 323.65 456.67 328.52L454.27 328.47C454.36 323.66 454.28 318.77 454.04 313.95L456.44 313.83ZM368.57 151.54L367.16 153.49C363.26 150.66 359.22 147.93 355.14 145.38L356.42 143.34C360.54 145.92 364.63 148.68 368.57 151.54ZM455.89 343.19C455.47 348.05 454.87 352.95 454.11 357.76L451.74 357.39C452.48 352.63 453.08 347.78 453.5 342.98L455.89 343.19ZM343.73 135.98L342.6 138.1C338.35 135.83 333.97 133.67 329.58 131.7L330.57 129.5C335.01 131.5 339.44 133.68 343.73 135.98ZM451.34 372.18C450.26 376.93 448.99 381.7 447.59 386.37L445.29 385.68C446.67 381.06 447.92 376.34 448.99 371.64L451.34 372.18ZM316.99 123.94L316.16 126.19C311.64 124.52 307.01 122.98 302.39 121.61L303.07 119.3C307.74 120.68 312.43 122.24 316.99 123.94ZM442.88 400.27C441.16 404.83 439.26 409.39 437.24 413.82L435.05 412.82C437.05 408.44 438.93 403.93 440.63 399.42L442.88 400.27ZM288.86 115.64L288.33 117.98C283.64 116.94 278.83 116.04 274.07 115.32L274.43 112.94C279.25 113.67 284.1 114.58 288.86 115.64ZM430.69 426.95C428.37 431.23 425.87 435.48 423.26 439.59L421.23 438.3C423.8 434.24 426.28 430.03 428.57 425.8L430.69 426.95ZM259.84 111.24L259.64 113.64C254.84 113.25 249.96 113.02 245.14 112.95L245.17 110.55C250.04 110.61 254.98 110.84 259.84 111.24L259.84 111.24ZM414.98 451.7C412.1 455.62 409.04 459.49 405.9 463.21L404.06 461.65C407.17 457.98 410.2 454.15 413.05 450.28L414.98 451.7ZM230.48 110.86L230.62 113.27C225.8 113.54 220.94 113.98 216.15 114.58L215.85 112.19C220.69 111.59 225.61 111.14 230.48 110.86ZM396.05 474.06C392.65 477.55 389.09 480.97 385.46 484.22L383.86 482.43C387.45 479.22 390.97 475.84 394.33 472.38L396.05 474.06ZM201.36 114.53L201.83 116.89C197.1 117.82 192.35 118.93 187.7 120.18L187.07 117.86C191.77 116.59 196.58 115.47 201.36 114.53ZM374.2 493.62C370.36 496.61 366.36 499.51 362.32 502.23L360.97 500.23C364.97 497.54 368.92 494.68 372.72 491.72L374.2 493.62ZM173.05 122.16L173.83 124.44C169.28 126 164.73 127.75 160.28 129.63L159.35 127.41C163.84 125.51 168.45 123.75 173.05 122.16ZM349.87 510C345.66 512.43 341.3 514.75 336.92 516.9L335.86 514.74C340.2 512.62 344.5 510.32 348.67 507.91L349.87 510ZM147.12 135.73C142.81 137.9 138.53 140.24 134.39 142.7L133.17 140.63C137.35 138.15 141.68 135.78 146.03 133.58L147.12 135.73ZM122.17 150.52C118.2 153.26 114.28 156.16 110.52 159.16L109.02 157.28C112.83 154.25 116.79 151.31 120.81 148.54L122.17 150.52ZM99.49 168.58C95.94 171.84 92.47 175.25 89.15 178.74L87.41 177.08C90.76 173.55 94.28 170.1 97.87 166.81L99.49 168.58ZM79.53 189.58C76.46 193.29 73.48 197.16 70.68 201.06L68.72 199.66C71.56 195.71 74.57 191.8 77.68 188.05L79.53 189.58ZM62.63 213.13C60.09 217.23 57.67 221.47 55.43 225.72L53.3 224.59C55.57 220.29 58.02 216.01 60.58 211.86L62.63 213.13ZM49.09 238.77C47.14 243.18 45.32 247.7 43.67 252.23L41.41 251.41C43.07 246.83 44.92 242.25 46.9 237.8L49.09 238.77ZM39.17 266.03C37.83 270.66 36.63 275.4 35.62 280.1L33.27 279.59C34.29 274.84 35.5 270.05 36.86 265.36L39.17 266.03ZM33.03 294.39C32.34 299.16 31.8 304.02 31.44 308.82L29.04 308.63C29.41 303.78 29.95 298.87 30.65 294.04L33.03 294.39ZM30.83 323.33C30.8 328.15 30.93 333.03 31.23 337.84L28.83 337.99C28.53 333.13 28.39 328.19 28.43 323.31L30.83 323.33ZM32.63 352.3C33.26 357.08 34.06 361.89 35.02 366.61L32.66 367.09C31.69 362.32 30.88 357.45 30.24 352.62L32.63 352.3ZM38.39 380.73C39.67 385.36 41.13 390.02 42.72 394.57L40.45 395.37C38.84 390.77 37.36 386.06 36.07 381.37L38.39 380.73Z" />
	<path id="Layer" class="shp1" d="M322.3 520.82L323.21 523.05C320.96 523.97 318.69 524.85 316.45 525.68L315.61 523.42C317.83 522.6 320.08 521.73 322.3 520.82Z" />
	<path id="Layer" class="shp2" d="M435.38 420.13C435.14 419.73 429.48 410.28 427.51 390.65C425.71 372.64 426.87 342.28 442.61 299.93C472.44 219.71 435.74 154.98 435.37 154.34L437.18 153.29C437.27 153.45 446.74 169.95 452.33 196.23C454.17 204.89 455.39 213.66 455.99 222.49C456.58 231.32 456.55 240.18 455.9 249C455.24 257.82 453.96 266.59 452.07 275.23C450.17 283.88 447.67 292.37 444.58 300.66C414.8 380.75 436.94 418.66 437.16 419.04L435.38 420.13Z" />
	<path id="Layer" class="shp3" d="M423.72 149.63C416.2 149.63 410.12 143.55 410.12 136.02C410.12 128.5 416.2 122.42 423.72 122.42C431.24 122.42 437.32 128.5 437.32 136.02C437.32 143.55 431.24 149.63 423.72 149.63Z" />
	<path id="Layer" class="shp2" d="M466.61 199.85C459.09 199.85 453.01 193.77 453.01 186.25C453.01 178.73 459.09 172.65 466.61 172.65C474.13 172.65 480.21 178.73 480.21 186.25C480.21 193.77 474.13 199.85 466.61 199.85Z" />
	<path id="Layer" class="shp3" d="M437.32 233.33C429.8 233.33 423.72 227.25 423.72 219.73C423.72 212.21 429.8 206.13 437.32 206.13C444.84 206.13 450.92 212.21 450.92 219.73C450.92 227.25 444.84 233.33 437.32 233.33Z" />
	<path id="Layer" class="shp3" d="M472.89 261.58C465.37 261.58 459.29 255.5 459.29 247.98C459.29 240.46 465.37 234.38 472.89 234.38C480.41 234.38 486.49 240.46 486.49 247.98C486.49 255.5 480.41 261.58 472.89 261.58Z" />
	<path id="Layer" class="shp2" d="M426.85 305.53C419.33 305.53 413.25 299.45 413.25 291.93C413.25 284.41 419.33 278.33 426.85 278.33C434.38 278.33 440.46 284.41 440.46 291.93C440.46 299.45 434.38 305.53 426.85 305.53Z" />
	<path id="Layer" class="shp2" d="M443.59 420.63C443.59 420.63 429.99 387.14 470.8 362.03L443.59 420.63Z" />
	<path id="Layer" class="shp2" d="M426.87 420.02C426.87 420.02 420.68 384.41 372.77 384.72L426.87 420.02Z" />
	<path id="Layer" class="shp2" d="M337.08 170.4C336.59 170.28 336.08 170.35 335.63 170.58C335.19 170.81 334.84 171.2 334.66 171.67C334.48 172.14 334.47 172.66 334.65 173.13C334.82 173.61 335.16 174 335.6 174.24C337.37 175.23 339.09 176.3 340.75 177.46C342.42 178.62 344.02 179.86 345.56 181.17C347.11 182.49 348.58 183.88 349.99 185.34C351.39 186.8 352.72 188.33 353.98 189.92C377.43 219.7 369.24 265.27 335.68 291.71C331.99 294.67 328.05 297.31 323.91 299.59C319.77 301.88 315.44 303.81 310.97 305.35C306.49 306.9 301.9 308.06 297.23 308.81C292.56 309.57 287.83 309.93 283.1 309.88C305.63 316.23 332.23 311.23 353.67 294.35C387.22 267.9 395.41 222.33 371.96 192.55C369.78 189.81 367.37 187.24 364.76 184.9C362.15 182.55 359.35 180.42 356.38 178.54C353.42 176.66 350.31 175.03 347.07 173.66C343.84 172.3 340.5 171.21 337.08 170.4L337.08 170.4Z" />
	<path id="Layer" class="shp3" d="M353.98 190.37C377.43 220.15 369.24 265.72 335.68 292.16C332.63 294.6 329.41 296.82 326.04 298.8C322.68 300.79 319.18 302.53 315.57 304.03C311.96 305.53 308.25 306.77 304.47 307.75C300.69 308.73 296.84 309.45 292.96 309.89C297.59 309.87 302.2 309.45 306.75 308.65C311.31 307.86 315.78 306.68 320.14 305.13C324.5 303.59 328.72 301.68 332.76 299.43C336.8 297.19 340.64 294.6 344.25 291.71C377.81 265.27 386 219.7 362.54 189.92C360.89 187.82 359.1 185.84 357.19 183.97C355.28 182.11 353.25 180.37 351.12 178.76C348.98 177.16 346.75 175.69 344.42 174.38C342.1 173.06 339.7 171.9 337.22 170.89L337.07 170.85C336.58 170.74 336.07 170.8 335.62 171.04C335.18 171.27 334.84 171.66 334.66 172.13C334.48 172.6 334.48 173.12 334.65 173.59C334.82 174.06 335.16 174.45 335.6 174.69C337.37 175.68 339.09 176.76 340.76 177.91C342.42 179.07 344.02 180.31 345.57 181.62C347.11 182.94 348.58 184.33 349.99 185.79C351.39 187.25 352.72 188.78 353.98 190.37L353.98 190.37Z" />
	<path id="Layer" class="shp3" d="M249.95 144.39L263.79 168.38L277.64 192.36L249.95 192.36L222.26 192.36L236.1 168.38L249.95 144.39L249.95 144.39Z" />
	<path id="Layer" class="shp3" d="M300.45 144.39L314.29 168.38L328.14 192.36L300.45 192.36L272.76 192.36L286.6 168.38L300.45 144.39L300.45 144.39Z" />
	<path id="Layer" class="shp2" d="M248.35 156.9L256.89 171.7L265.43 186.5L248.35 186.5L231.26 186.5L239.8 171.7L248.35 156.9L248.35 156.9Z" />
	<path id="Layer" class="shp2" d="M300.25 156.9L308.79 171.7L317.33 186.5L300.25 186.5L283.16 186.5L291.7 171.7L300.25 156.9L300.25 156.9Z" />
	<path id="Layer" class="shp2" d="M372.59 315.02C372.59 360.69 340.87 400.23 296.29 410.12C251.71 420.02 206.24 397.6 186.93 356.22C167.62 314.83 179.65 265.58 215.87 237.77C252.09 209.95 302.77 211.04 337.76 240.38C343.2 244.93 348.12 250.07 352.44 255.7C356.76 261.33 360.46 267.41 363.46 273.84C366.46 280.27 368.74 287 370.28 293.93C371.82 300.86 372.59 307.93 372.59 315.02Z" />
	<path id="Layer" class="shp4" d="M337.76 240.38C329.62 261.66 304.69 277.14 275.2 277.14C245.71 277.14 220.78 261.66 212.63 240.38C221.33 233.08 231.24 227.36 241.91 223.48C252.58 219.6 263.84 217.62 275.2 217.62C286.55 217.62 297.82 219.6 308.49 223.48C319.16 227.36 329.06 233.08 337.76 240.38Z" />
	<path id="Layer" class="shp2" d="M275.2 269.48C239.04 269.48 209.82 246.3 209.82 217.62C209.82 188.94 239.04 165.76 275.2 165.76C311.35 165.76 340.58 188.94 340.58 217.62C340.58 246.3 311.35 269.48 275.2 269.48Z" />
	<path id="Layer" class="shp5" d="M244.54 222.58C237.8 222.58 232.36 217.13 232.36 210.4C232.36 203.67 237.8 198.23 244.54 198.23C251.27 198.23 256.71 203.67 256.71 210.4C256.71 217.13 251.27 222.58 244.54 222.58Z" />
	<path id="Layer" class="shp5" d="M305.86 222.58C299.13 222.58 293.68 217.13 293.68 210.4C293.68 203.67 299.13 198.23 305.86 198.23C312.59 198.23 318.03 203.67 318.03 210.4C318.03 217.13 312.59 222.58 305.86 222.58Z" />
	<path id="Layer" class="shp2" d="M244.54 218.07C240.3 218.07 236.87 214.64 236.87 210.4C236.87 206.16 240.3 202.74 244.54 202.74C248.77 202.74 252.2 206.16 252.2 210.4C252.2 214.64 248.77 218.07 244.54 218.07Z" />
	<path id="Layer" class="shp2" d="M305.86 218.07C301.62 218.07 298.19 214.64 298.19 210.4C298.19 206.16 301.62 202.74 305.86 202.74C310.1 202.74 313.52 206.16 313.52 210.4C313.52 214.64 310.1 218.07 305.86 218.07Z" />
	<path id="Layer" class="shp3" d="M261.52 229.79C260.28 229.79 259.27 228.78 259.27 227.53C259.27 226.29 260.28 225.28 261.52 225.28C262.77 225.28 263.78 226.29 263.78 227.53C263.78 228.78 262.77 229.79 261.52 229.79Z" />
	<path id="Layer" class="shp3" d="M260.66 226.96C256.24 228.97 253.31 233.06 248.66 234.82C247.49 235.26 246.28 235.6 245.05 235.83C243.82 236.07 242.57 236.2 241.32 236.22C240.06 236.25 238.81 236.16 237.57 235.97C236.33 235.78 235.11 235.49 233.92 235.09C233.1 234.81 232.74 236.12 233.57 236.39C234.76 236.79 235.98 237.09 237.22 237.29C238.46 237.49 239.71 237.59 240.97 237.58C242.22 237.58 243.47 237.48 244.71 237.27C245.95 237.07 247.17 236.76 248.36 236.36C248.93 236.16 249.49 235.95 250.03 235.71C250.58 235.47 251.12 235.21 251.65 234.93C252.18 234.65 252.69 234.35 253.2 234.03C253.7 233.71 254.19 233.37 254.67 233.01C256.88 231.32 258.77 229.3 261.34 228.13C262.13 227.77 261.45 226.6 260.66 226.96Z" />
	<path id="Layer" class="shp3" d="M262.42 226.39C261.86 226.52 261.3 226.67 260.74 226.83C260.19 227 259.64 227.19 259.1 227.39C258.56 227.6 258.02 227.82 257.49 228.06C256.97 228.3 256.45 228.56 255.94 228.84C255.35 229.12 254.76 229.38 254.15 229.61C253.54 229.84 252.92 230.04 252.3 230.22C251.67 230.39 251.04 230.54 250.4 230.66C249.76 230.78 249.12 230.87 248.47 230.94C247.25 231.04 246.02 231.05 244.8 230.95C243.58 230.85 242.37 230.65 241.18 230.35C240 230.05 238.84 229.65 237.72 229.16C236.6 228.66 235.52 228.08 234.5 227.4C233.77 226.92 233.09 228.09 233.81 228.57C234.84 229.24 235.92 229.83 237.03 230.34C238.15 230.84 239.31 231.25 240.49 231.57C241.67 231.89 242.88 232.12 244.1 232.25C245.32 232.37 246.55 232.41 247.77 232.34C248.37 232.31 248.96 232.26 249.56 232.18C250.15 232.1 250.74 231.99 251.33 231.87C251.91 231.74 252.49 231.59 253.06 231.42C253.63 231.24 254.2 231.05 254.76 230.83C257.45 229.75 259.89 228.19 262.78 227.69C263.64 227.54 263.27 226.24 262.42 226.39L262.42 226.39Z" />
	<path id="Layer" class="shp3" d="M261.21 225.51C257.77 228.76 256.34 233.45 252.69 236.6C251.71 237.44 250.67 238.19 249.56 238.84C248.46 239.5 247.3 240.05 246.1 240.5C244.89 240.96 243.66 241.3 242.39 241.54C241.13 241.77 239.85 241.89 238.57 241.9C238.39 241.91 238.22 241.98 238.1 242.11C237.98 242.24 237.91 242.41 237.91 242.58C237.91 242.76 237.98 242.93 238.1 243.05C238.22 243.18 238.39 243.25 238.57 243.26C239.81 243.25 241.05 243.14 242.28 242.93C243.51 242.72 244.72 242.42 245.89 242.01C247.07 241.61 248.22 241.12 249.32 240.53C250.41 239.95 251.46 239.27 252.46 238.52C252.91 238.18 253.34 237.82 253.77 237.44C254.19 237.07 254.6 236.68 254.99 236.27C255.39 235.87 255.76 235.44 256.13 235.01C256.49 234.58 256.83 234.13 257.16 233.67C258.86 231.26 259.99 228.52 262.17 226.47C262.8 225.87 261.84 224.91 261.21 225.51L261.21 225.51Z" />
	<path id="Layer" class="shp3" d="M285.26 229.79C284.02 229.79 283.01 228.78 283.01 227.53C283.01 226.29 284.02 225.28 285.26 225.28C286.51 225.28 287.52 226.29 287.52 227.53C287.52 228.78 286.51 229.79 285.26 229.79Z" />
	<path id="Layer" class="shp3" d="M285.45 228.13C287.99 229.28 289.87 231.28 292.05 232.95C292.53 233.32 293.03 233.67 293.54 233.99C294.04 234.32 294.57 234.63 295.1 234.91C295.63 235.2 296.18 235.46 296.73 235.7C297.29 235.94 297.85 236.16 298.43 236.36C299.62 236.76 300.83 237.07 302.07 237.27C303.31 237.48 304.57 237.58 305.82 237.59C307.08 237.59 308.33 237.49 309.57 237.29C310.81 237.09 312.03 236.79 313.22 236.39C314.04 236.12 313.69 234.81 312.86 235.09C311.67 235.49 310.45 235.78 309.22 235.97C307.98 236.16 306.72 236.25 305.47 236.22C304.22 236.2 302.97 236.07 301.74 235.83C300.51 235.6 299.3 235.26 298.13 234.82C293.48 233.06 290.55 228.97 286.13 226.96C285.34 226.6 284.65 227.77 285.45 228.13L285.45 228.13Z" />
	<path id="Layer" class="shp3" d="M284.01 227.69C286.79 228.17 289.14 229.63 291.71 230.7C292.29 230.93 292.88 231.15 293.47 231.34C294.07 231.53 294.68 231.69 295.29 231.83C295.9 231.96 296.52 232.08 297.14 232.16C297.76 232.25 298.39 232.31 299.02 232.34C300.24 232.41 301.47 232.37 302.69 232.25C303.91 232.12 305.11 231.89 306.3 231.57C307.48 231.25 308.64 230.84 309.75 230.34C310.87 229.83 311.95 229.24 312.97 228.57C313.7 228.1 313.02 226.92 312.29 227.4C311.27 228.08 310.19 228.66 309.07 229.16C307.95 229.65 306.79 230.05 305.6 230.35C304.42 230.65 303.21 230.85 301.99 230.95C300.76 231.05 299.54 231.05 298.32 230.94C297.67 230.87 297.03 230.78 296.39 230.66C295.75 230.54 295.12 230.39 294.49 230.21C293.87 230.04 293.25 229.83 292.64 229.6C292.03 229.37 291.43 229.12 290.85 228.84C290.34 228.56 289.82 228.3 289.29 228.06C288.77 227.82 288.23 227.6 287.69 227.39C287.15 227.19 286.6 227 286.05 226.83C285.49 226.67 284.93 226.52 284.37 226.39C283.52 226.24 283.15 227.54 284.01 227.69L284.01 227.69Z" />
	<path id="Layer" class="shp3" d="M284.62 226.47C286.8 228.52 287.92 231.26 289.63 233.67C289.96 234.13 290.3 234.57 290.66 235.01C291.02 235.44 291.4 235.86 291.8 236.27C292.19 236.68 292.6 237.07 293.02 237.44C293.44 237.82 293.88 238.18 294.33 238.52C295.32 239.27 296.37 239.95 297.47 240.53C298.57 241.12 299.71 241.61 300.89 242.01C302.07 242.42 303.28 242.72 304.51 242.93C305.73 243.14 306.98 243.25 308.22 243.26C308.4 243.25 308.56 243.18 308.68 243.05C308.81 242.93 308.87 242.76 308.87 242.58C308.87 242.41 308.81 242.24 308.68 242.11C308.56 241.98 308.4 241.91 308.22 241.9C306.94 241.9 305.66 241.77 304.39 241.54C303.13 241.3 301.89 240.96 300.69 240.51C299.49 240.06 298.33 239.5 297.22 238.84C296.12 238.19 295.07 237.44 294.1 236.6C290.46 233.44 289.02 228.76 285.58 225.51C284.94 224.91 283.98 225.87 284.62 226.47L284.62 226.47Z" />
	<path id="Layer" class="shp2" d="M244.54 419.19C234.56 419.19 226.5 414.56 226.5 408.82C226.5 403.09 234.56 398.45 244.54 398.45C254.51 398.45 262.57 403.09 262.57 408.82C262.57 414.56 254.51 419.19 244.54 419.19Z" />
	<path id="Layer" class="shp2" d="M305.86 419.19C295.88 419.19 287.82 414.56 287.82 408.82C287.82 403.09 295.88 398.45 305.86 398.45C315.83 398.45 323.89 403.09 323.89 408.82C323.89 414.56 315.83 419.19 305.86 419.19Z" />
	<path id="Layer" class="shp3" d="M273.39 235.65C265.17 235.65 258.51 231.82 258.51 227.09C258.51 222.35 265.17 218.52 273.39 218.52C281.62 218.52 288.27 222.35 288.27 227.09C288.27 231.82 281.62 235.65 273.39 235.65Z" />
	<path id="Layer" fill-rule="evenodd" class="shp0" d="M779.43 0L779.43 581.76L0 581.76L0 0L779.43 0ZM95.63 8.28C94.11 8.91 92.72 9.84 91.56 11C90.39 12.17 89.47 13.55 88.84 15.08C88.21 16.6 87.88 18.23 87.88 19.88C87.88 24.96 90.94 29.54 95.63 31.48C100.32 33.42 105.72 32.35 109.31 28.76C112.9 25.17 113.98 19.77 112.04 15.08C110.09 10.38 105.51 7.32 100.44 7.32C98.79 7.32 97.16 7.65 95.63 8.28ZM29.91 31.48C31.44 30.85 32.82 29.92 33.99 28.76C35.15 27.59 36.08 26.21 36.71 24.69C37.34 23.16 37.66 21.53 37.66 19.88C37.66 14.8 34.6 10.22 29.91 8.28C25.22 6.34 19.82 7.41 16.23 11C12.64 14.59 11.57 19.99 13.51 24.69C15.45 29.38 20.03 32.44 25.11 32.44C26.76 32.44 28.39 32.11 29.91 31.48ZM51.17 24.69C51.8 26.21 52.73 27.59 53.9 28.76C55.06 29.92 56.45 30.85 57.97 31.48C59.49 32.11 61.12 32.44 62.77 32.44C67.85 32.44 72.43 29.38 74.37 24.69C76.31 19.99 75.24 14.59 71.65 11C68.06 7.41 62.66 6.34 57.97 8.28C53.28 10.22 50.22 14.8 50.22 19.88C50.22 21.53 50.54 23.16 51.17 24.69ZM482.3 106.73L62.77 106.73L62.77 418.54L482.3 418.54L482.3 106.73Z" />
	<path id="Layer" class="shp5" d="M737.58 10.46L762.69 10.46L762.69 13.6L737.58 13.6L737.58 10.46Z" />
	<path id="Layer" class="shp5" d="M737.58 19.88L762.69 19.88L762.69 23.02L737.58 23.02L737.58 19.88Z" />
	<path id="Layer" class="shp5" d="M737.58 29.3L762.69 29.3L762.69 32.44L737.58 32.44L737.58 29.3Z" />
	<path id="Layer" class="shp5" d="M548.22 101.49L737.58 101.49L737.58 110.91L548.22 110.91L548.22 101.49Z" />
	<path id="Layer" class="shp5" d="M548.22 133.93L737.58 133.93L737.58 143.35L548.22 143.35L548.22 133.93Z" />
	<path id="Layer" class="shp5" d="M548.22 166.37L737.58 166.37L737.58 175.78L548.22 175.78L548.22 166.37Z" />
	<path id="Layer" class="shp5" d="M548.22 198.8L737.58 198.8L737.58 208.22L548.22 208.22L548.22 198.8Z" />
	<path id="Layer" class="shp5" d="M548.22 231.24L737.58 231.24L737.58 240.66L548.22 240.66L548.22 231.24Z" />
	<path id="Layer" class="shp5" d="M548.22 263.68L737.58 263.68L737.58 273.09L548.22 273.09L548.22 263.68Z" />
	<path id="Layer" class="shp5" d="M548.22 296.11L737.58 296.11L737.58 305.53L548.22 305.53L548.22 296.11Z" />
	<path id="Layer" class="shp5" d="M548.22 328.55L737.58 328.55L737.58 337.97L548.22 337.97L548.22 328.55Z" />
	<path id="Layer" class="shp5" d="M548.22 360.99L737.58 360.99L737.58 370.4L548.22 370.4L548.22 360.99Z" />
	<path id="Layer" class="shp5" d="M548.22 393.42L737.58 393.42L737.58 402.84L548.22 402.84L548.22 393.42Z" />
	<path id="Layer" class="shp5" d="M87.88 453.06C80.94 453.06 75.33 447.45 75.33 440.51C75.33 433.56 80.94 427.95 87.88 427.95C94.82 427.95 100.44 433.56 100.44 440.51C100.44 447.45 94.82 453.06 87.88 453.06Z" />
	<path id="Layer" class="shp5" d="M130.78 453.06C123.83 453.06 118.22 447.45 118.22 440.51C118.22 433.56 123.83 427.95 130.78 427.95C137.72 427.95 143.33 433.56 143.33 440.51C143.33 447.45 137.72 453.06 130.78 453.06Z" />
	<path id="Layer" class="shp5" d="M173.67 453.06C166.73 453.06 161.12 447.45 161.12 440.51C161.12 433.56 166.73 427.95 173.67 427.95C180.61 427.95 186.23 433.56 186.23 440.51C186.23 447.45 180.61 453.06 173.67 453.06Z" />
	<path id="Layer" class="shp3" d="M548.22 502.24L737.58 502.24L737.58 555.61L548.22 555.61L548.22 502.24Z" />
	<path id="Layer" class="shp6" d="M642.33 459.81L644.45 533.94L667.04 620.79C667.04 620.79 662.1 635.61 665.63 639.14C669.16 642.67 685.4 649.03 685.4 649.03L671.98 464.05L642.33 459.81Z" />
	<path id="Layer" class="shp6" d="M691.38 638.78C691.38 638.78 699.43 656.51 688.16 658.12C676.88 659.73 624.78 664.03 628 654.9C631.23 645.76 670.43 637.17 670.43 637.17L691.38 638.78Z" />
	<path id="Layer" class="shp6" d="M721.4 394.15C721.4 394.15 712.93 440.04 707.28 447.81C701.63 455.57 710.1 512.06 710.1 512.06C710.1 512.06 722.81 593.25 717.16 605.96C711.52 618.67 712.93 614.43 713.63 621.49C714.34 628.55 715.75 634.2 713.63 640.56C711.52 646.91 711.52 646.2 710.81 649.73C710.1 653.26 710.81 672.33 710.81 672.33C710.81 672.33 680.45 682.92 675.51 667.39C675.51 667.39 682.57 657.5 680.45 649.73C679.9 647.78 679.41 645.81 678.99 643.83C678.57 641.85 678.21 639.85 677.91 637.85C677.62 635.84 677.39 633.82 677.22 631.8C677.06 629.78 676.96 627.76 676.92 625.73L676.92 610.9L644.45 489.46L636.68 445.69C636.68 445.69 638.8 401.21 646.57 396.97C654.33 392.74 721.4 394.15 721.4 394.15Z" />
	<path id="Layer" class="shp6" d="M708.69 668.8C708.69 668.8 719.28 692.1 704.46 694.21C689.63 696.33 621.15 701.98 625.39 689.98C629.63 677.98 681.16 666.68 681.16 666.68L708.69 668.8Z" />
	<path id="Layer" class="shp7" d="M695.27 190.84C679.66 190.84 667.03 178.21 667.03 162.6C667.03 146.98 679.66 134.35 695.27 134.35C710.89 134.35 723.51 146.98 723.51 162.6C723.51 178.21 710.89 190.84 695.27 190.84Z" />
	<path id="Layer" class="shp7" d="M715.11 175.08L714.59 211.14L679.97 211.26C679.97 211.26 688.76 183.03 684.82 177.12C680.88 171.22 715.11 175.08 715.11 175.08Z" />
	<path id="Layer" class="shp2" d="M663.51 231.05C663.51 231.05 688.22 199.28 707.28 212.7C726.34 226.11 733.4 257.88 733.4 257.88L729.17 346.84C729.17 346.84 718.58 359.55 724.93 368.02C731.28 376.5 734.81 374.38 729.87 380.73C724.93 387.09 719.28 392.03 721.4 394.15C723.52 396.27 719.28 397.68 719.28 397.68L644.45 399.8C644.45 399.8 646.57 396.97 640.21 388.5C633.86 380.03 641.63 368.73 640.21 364.49C638.8 360.26 637.39 365.2 636.68 355.32C635.98 345.43 663.51 231.05 663.51 231.05Z" />
	<path id="Layer" class="shp7" d="M670.57 413.21C670.57 413.21 669.16 430.86 658.57 433.69C654.6 434.74 651.62 432.73 649.45 429.79C648.44 428.39 647.65 426.85 647.09 425.21C646.54 423.58 646.23 421.87 646.19 420.15C646.14 418.42 646.34 416.7 646.8 415.04C647.26 413.38 647.97 411.79 648.89 410.34L651.51 406.15L670.57 413.21Z" />
	<path id="Layer" class="shp2" d="M735.87 195.4C735.87 195.4 736.58 209.52 735.87 211.64C735.17 213.75 734.46 215.87 735.87 217.99C737.28 220.11 736.58 227.17 735.17 227.87C733.75 228.58 737.99 234.94 736.58 239.17C735.17 243.41 733.75 244.82 733.05 246.23C732.34 247.64 731.2 250.17 731.2 250.17C731.2 250.17 710.46 205.99 693.51 216.58C676.57 227.17 663.16 230.7 663.16 230.7C663.16 230.7 672.34 181.28 735.87 195.4Z" />
	<path id="Layer" class="shp2" d="M705.16 228.23C705.16 228.23 727.75 230.35 726.34 260C724.93 289.65 728.46 336.25 728.46 336.25C728.46 336.25 689.63 395.56 683.28 399.8C676.92 404.03 676.22 403.33 676.92 406.86C677.63 410.39 678.34 413.21 675.51 416.03C675.1 416.45 674.67 416.86 674.22 417.25C673.77 417.63 673.32 418 672.84 418.36C672.37 418.71 671.89 419.05 671.39 419.37C670.89 419.69 670.38 419.99 669.86 420.27C669.35 420.55 647.27 412.5 649.39 405.44C651.51 398.38 661.39 387.09 661.39 387.09C661.39 387.09 678.34 359.55 679.04 355.32C679.75 351.08 679.75 351.79 681.87 349.67C683.98 347.55 689.63 339.08 689.63 334.84L689.63 321.43L683.71 249.74C683.58 248.28 683.6 246.81 683.77 245.36C683.95 243.91 684.27 242.48 684.75 241.1C685.22 239.72 685.84 238.39 686.59 237.13C687.34 235.88 688.23 234.71 689.22 233.64C692.58 230.13 697.66 227.33 705.16 228.23Z" />
	<path id="Layer" class="shp6" d="M677.06 140.82C676.14 141.07 675.2 141.21 674.25 141.23C673.3 141.25 672.35 141.16 671.42 140.94C670.49 140.73 669.6 140.4 668.75 139.97C667.9 139.54 667.11 139 666.4 138.37C663.64 135.75 662.71 131.21 664.68 127.95C666.37 125.13 669.67 123.75 672.81 122.77C674.53 122.24 676.28 121.76 678.04 121.36C679.81 120.95 681.58 120.61 683.37 120.34C685.16 120.06 686.96 119.86 688.76 119.72C690.57 119.58 692.38 119.51 694.19 119.51C697.64 119.51 701.25 119.81 704.21 121.59C705.67 122.48 706.91 123.7 708.36 124.61C711.02 126.28 714.22 126.84 717.14 128.01C718.63 128.61 720.05 129.37 721.37 130.28C722.7 131.19 723.93 132.24 725.03 133.41C726.13 134.58 727.11 135.86 727.94 137.24C728.77 138.61 729.45 140.07 729.97 141.6C730.14 142.11 730.29 142.63 730.42 143.16C730.56 143.69 730.68 144.22 730.78 144.75C730.89 145.28 730.98 145.82 731.05 146.36C731.12 146.9 731.18 147.44 731.22 147.98C731.33 149.46 731.36 150.94 731.29 152.42C731.22 153.9 731.05 155.38 730.8 156.84C730.54 158.3 730.19 159.75 729.75 161.16C729.31 162.58 728.78 163.97 728.16 165.31C724.22 173.9 716.73 181.13 715.67 190.52C711.63 187.13 710.45 181.45 707.32 177.2C706.75 176.43 706.11 175.7 705.41 175.03C704.71 174.36 703.96 173.75 703.15 173.21C702.35 172.66 701.51 172.19 700.63 171.79C699.75 171.38 698.84 171.06 697.9 170.81C697.64 170.77 697.38 170.72 697.13 170.65C696.87 170.57 696.62 170.48 696.38 170.38C696.14 170.27 695.91 170.14 695.68 170C695.46 169.86 695.25 169.7 695.05 169.53C694.91 169.34 694.79 169.15 694.68 168.94C694.58 168.74 694.49 168.53 694.41 168.31C694.34 168.09 694.28 167.87 694.23 167.64C694.19 167.42 694.16 167.19 694.15 166.96L692.22 153.01C691.82 150.17 691.29 147.07 689.11 145.2C688.77 144.95 688.42 144.72 688.05 144.5C687.68 144.29 687.3 144.1 686.91 143.93C686.53 143.76 686.13 143.62 685.72 143.49C685.31 143.37 684.9 143.27 684.48 143.19C683.49 142.95 682.5 142.72 681.5 142.52C680.5 142.31 679.49 142.13 678.49 141.96C677.48 141.8 676.47 141.65 675.46 141.53C674.44 141.41 673.43 141.31 672.41 141.23" />
	<path id="Layer" class="shp4" d="M725.03 346.34L685.4 397.77C685.4 397.77 721.89 367.26 725.03 346.34Z" />
	<path id="Layer" class="shp4" d="M686.99 289.39L687.36 337.97L664.35 372.5L683.18 333.78L686.99 289.39L686.99 289.39Z" />
</svg>